Scraping data about myself
…
# Custom function for plotting transparent colors:
t_col <- function(color, percent = 50) {
  rgb.val <- col2rgb(color)
  t.col <- rgb(rgb.val[1], rgb.val[2], rgb.val[3], max = 255, alpha = (100-percent)*255/100)
  invisible(t.col)
}

Load and Clean Data

Then I uploade these data to R:

amazon_raw <- read_csv("private_data/my_amazon_history.csv")
amazon_raw

## # A tibble: 622 x 36
##    `Order Date` `Order ID` Title Category `ASIN/ISBN` `UNSPSC Code` Website
##    <chr>        <chr>      <chr> <chr>    <chr>               <dbl> <chr>  
##  1 7/7/08       058-08218… Log … Paperba… 014004261X       55101500 Amazon…
##  2 9/11/08      103-85256… Foun… Paperba… 226705943        55101500 Amazon…
##  3 10/1/08      102-66135… Garm… Wireles… B000PDR230       49000000 Amazon…
##  4 2/20/09      103-27488… Tomb… Home     B00135DJQ8       60121500 Amazon…
##  5 2/20/09      103-27488… Remb… Paperba… 486241602        55101500 Amazon…
##  6 4/7/09       103-01892… Niji… Kitchen  B000KNNKKE       60120000 Amazon…
##  7 4/7/09       103-81047… Eart… Paperba… 716784904        55101500 Amazon…
##  8 4/20/09      103-62819… Dino… Paperba… 312104561        55101500 Amazon…
##  9 5/6/09       103-28285… Shur… Electro… B00006I5SB       60131401 Amazon…
## 10 5/6/09       103-95296… TCC … Electro… B000J46TFW       52161547 Amazon…
## # … with 612 more rows, and 29 more variables: `Release Date` <chr>,
## #   Condition <chr>, Seller <chr>, `Seller Credentials` <chr>, `List Price Per
## #   Unit` <chr>, `Purchase Price Per Unit` <chr>, Quantity <dbl>, `Payment
## #   Instrument Type` <chr>, `Purchase Order Number` <lgl>, `PO Line
## #   Number` <lgl>, `Ordering Customer Email` <chr>, `Shipment Date` <chr>,
## #   `Shipping Address Name` <chr>, `Shipping Address Street 1` <chr>, `Shipping
## #   Address Street 2` <chr>, `Shipping Address City` <chr>, `Shipping Address
## #   State` <chr>, `Shipping Address Zip` <chr>, `Order Status` <chr>, `Carrier
## #   Name & Tracking Number` <chr>, `Item Subtotal` <chr>, `Item Subtotal
…
amazon_clean

## # A tibble: 622 x 5
##    order_date category       title                             cost cum_spending
##    <date>     <fct>          <chr>                            <dbl>        <dbl>
##  1 2008-07-07 Paperback      Log from the 'Sea of Cortez,' …   1.95         1.95
##  2 2008-09-11 Paperback      Foundations of Ecology: Classi…  36           38.0 
##  3 2008-10-01 Wireless Phon… Garmin eTrex Venture HC High-I… 117          155.  
##  4 2009-02-20 Home           Tombow MONO Professional Drawi…  11.0        166.  
##  5 2009-02-20 Paperback      Rembrandt Landscape Drawings (…   6.95       173.  
##  6 2009-04-07 Kitchen        Niji Waterbrush Small             5.25       178.  
##  7 2009-04-07 Paperback      Earth's Climate: Past and Futu…  68.6        247.  
##  8 2009-04-20 Paperback      Dinosaurs in the Attic: An Exc…   4.99       252.  
##  9 2009-05-06 Electronics    Shure M97xE High-Performance M…  69.1        321.  
## 10 2009-05-06 Electronics    TCC TC-400G/L Phono Preamp, Pr…  29.5        350.  
## # … with 612 more rows
…
